<svg xmlns="http://www.w3.org/2000/svg" id="svg5327" width="32" height="32" version="1.1">
 <defs id="defs5329">
  <filter id="filter835" style="color-interpolation-filters:sRGB" width="1.12" height="1.12" x="-.06" y="-.06">
   <feGaussianBlur id="feGaussianBlur837" stdDeviation=".55"/>
  </filter>
  <filter id="filter822" style="color-interpolation-filters:sRGB" width="1.144" height="1.144" x="-.07" y="-.07">
   <feGaussianBlur id="feGaussianBlur824" stdDeviation=".66"/>
  </filter>
 </defs>
 <path id="path817" style="color:#000000;font-style:normal;font-variant:normal;font-weight:normal;font-stretch:normal;font-size:medium;line-height:normal;font-family:sans-serif;font-variant-ligatures:normal;font-variant-position:normal;font-variant-caps:normal;font-variant-numeric:normal;font-variant-alternates:normal;font-feature-settings:normal;text-indent:0;text-align:start;text-decoration:none;text-decoration-line:none;text-decoration-style:solid;text-decoration-color:#000000;letter-spacing:normal;word-spacing:normal;text-transform:none;writing-mode:lr-tb;direction:ltr;text-orientation:mixed;dominant-baseline:auto;baseline-shift:baseline;text-anchor:start;white-space:normal;shape-padding:0;clip-rule:nonzero;display:inline;overflow:visible;visibility:visible;opacity:0.2;isolation:auto;mix-blend-mode:normal;color-interpolation:sRGB;color-interpolation-filters:linearRGB;solid-color:#000000;solid-opacity:1;vector-effect:none;fill:#000000;fill-opacity:1;fill-rule:nonzero;stroke:none;stroke-width:2.00130725;stroke-linecap:round;stroke-linejoin:round;stroke-miterlimit:4;stroke-dasharray:none;stroke-dashoffset:0;stroke-opacity:1;color-rendering:auto;image-rendering:auto;shape-rendering:auto;text-rendering:auto;enable-background:accumulate;filter:url(#filter822)" d="M 6.4576425,5.5009245 A 1.0007388,1.0007687 0 0 0 5.5,6.4859577 V 25.498663 26.499331 A 1.0007388,1.0007687 0 0 0 6.5006387,27.5 H 7.5012774 26.513413 a 1.0007388,1.0007687 0 0 0 0,-2.001337 C 16.001448,25.498664 7.5012769,16.998237 7.5012774,6.4859577 A 1.0007388,1.0007687 0 0 0 6.4576425,5.5009245 Z"/>
 <path id="path827" style="color:#000000;font-style:normal;font-variant:normal;font-weight:normal;font-stretch:normal;font-size:medium;line-height:normal;font-family:sans-serif;font-variant-ligatures:normal;font-variant-position:normal;font-variant-caps:normal;font-variant-numeric:normal;font-variant-alternates:normal;font-feature-settings:normal;text-indent:0;text-align:start;text-decoration:none;text-decoration-line:none;text-decoration-style:solid;text-decoration-color:#000000;letter-spacing:normal;word-spacing:normal;text-transform:none;writing-mode:lr-tb;direction:ltr;text-orientation:mixed;dominant-baseline:auto;baseline-shift:baseline;text-anchor:start;white-space:normal;shape-padding:0;clip-rule:nonzero;display:inline;overflow:visible;visibility:visible;opacity:1;isolation:auto;mix-blend-mode:normal;color-interpolation:sRGB;color-interpolation-filters:linearRGB;solid-color:#000000;solid-opacity:1;vector-effect:none;fill:#272822;fill-opacity:1;fill-rule:nonzero;stroke:none;stroke-width:2.00130725;stroke-linecap:round;stroke-linejoin:round;stroke-miterlimit:4;stroke-dasharray:none;stroke-dashoffset:0;stroke-opacity:1;color-rendering:auto;image-rendering:auto;shape-rendering:auto;text-rendering:auto;enable-background:accumulate" d="M 5.9576471,5.0009245 A 1.0007388,1.0007687 0 0 0 5.0000046,5.9859577 V 24.998663 25.999331 A 1.0007388,1.0007687 0 0 0 6.0006433,27 H 7.001282 26.013418 a 1.0007388,1.0007687 0 0 0 0,-2.001337 C 15.501453,24.998664 7.0012815,16.498237 7.001282,5.9859577 A 1.0007388,1.0007687 0 0 0 5.9576471,5.0009245 Z"/>
 <path id="rect840" style="opacity:1;fill:#cfd0c2;fill-opacity:1;stroke:none;stroke-width:1.35400641;stroke-linecap:square;stroke-linejoin:bevel;stroke-miterlimit:4;stroke-dasharray:none;stroke-opacity:1" d="M 6 6 L 6 25 L 6 26 L 7 26 L 26 26 A 19.999999 19.999999 0 0 1 6 6 z"/>
</svg>
