<svg xmlns="http://www.w3.org/2000/svg" id="svg5327" width="32" height="32" version="1.1">
 <defs id="defs5329">
  <filter id="filter859" style="color-interpolation-filters:sRGB" width="1.127" height="1.114" x="-.06" y="-.06">
   <feGaussianBlur id="feGaussianBlur861" stdDeviation=".475"/>
  </filter>
  <filter id="filter822" style="color-interpolation-filters:sRGB" width="1.152" height="1.137" x="-.08" y="-.07">
   <feGaussianBlur id="feGaussianBlur824" stdDeviation=".57"/>
  </filter>
 </defs>
 <path id="path833" style="color:#000000;font-style:normal;font-variant:normal;font-weight:normal;font-stretch:normal;font-size:medium;line-height:normal;font-family:sans-serif;font-variant-ligatures:normal;font-variant-position:normal;font-variant-caps:normal;font-variant-numeric:normal;font-variant-alternates:normal;font-feature-settings:normal;text-indent:0;text-align:start;text-decoration:none;text-decoration-line:none;text-decoration-style:solid;text-decoration-color:#000000;letter-spacing:normal;word-spacing:normal;text-transform:none;writing-mode:lr-tb;direction:ltr;text-orientation:mixed;dominant-baseline:auto;baseline-shift:baseline;text-anchor:start;white-space:normal;shape-padding:0;clip-rule:nonzero;display:inline;overflow:visible;visibility:visible;opacity:0.2;isolation:auto;mix-blend-mode:normal;color-interpolation:sRGB;color-interpolation-filters:linearRGB;solid-color:#000000;solid-opacity:1;vector-effect:none;fill:#000000;fill-opacity:1;fill-rule:nonzero;stroke:none;stroke-width:2.00004554;stroke-linecap:round;stroke-linejoin:round;stroke-miterlimit:4;stroke-dasharray:none;stroke-dashoffset:0;stroke-opacity:1;color-rendering:auto;image-rendering:auto;shape-rendering:auto;text-rendering:auto;enable-background:accumulate;filter:url(#filter822)" d="M 16.453336,6.5011271 A 1.0001,1.0001454 0 0 0 15.586149,7.0929509 L 7.5861476,25.093768 A 1.0001,1.0001454 0 0 0 9.2072413,26.2071 c 2.1141197,-2.118585 4.9717747,-3.618837 7.3242197,-3.705247 2.828331,-0.04913 5.748517,1.682965 7.166016,3.593914 a 1.0001,1.0001454 0 0 0 1.716796,-1.001999 l -8,-18.0008171 A 1.0001,1.0001454 0 0 0 16.453336,6.5011271 Z"/>
 <path id="path830" style="color:#000000;font-style:normal;font-variant:normal;font-weight:normal;font-stretch:normal;font-size:medium;line-height:normal;font-family:sans-serif;font-variant-ligatures:normal;font-variant-position:normal;font-variant-caps:normal;font-variant-numeric:normal;font-variant-alternates:normal;font-feature-settings:normal;text-indent:0;text-align:start;text-decoration:none;text-decoration-line:none;text-decoration-style:solid;text-decoration-color:#000000;letter-spacing:normal;word-spacing:normal;text-transform:none;writing-mode:lr-tb;direction:ltr;text-orientation:mixed;dominant-baseline:auto;baseline-shift:baseline;text-anchor:start;white-space:normal;shape-padding:0;clip-rule:nonzero;display:inline;overflow:visible;visibility:visible;opacity:1;isolation:auto;mix-blend-mode:normal;color-interpolation:sRGB;color-interpolation-filters:linearRGB;solid-color:#000000;solid-opacity:1;vector-effect:none;fill:#272822;fill-opacity:1;fill-rule:nonzero;stroke:none;stroke-width:2.00004554;stroke-linecap:round;stroke-linejoin:round;stroke-miterlimit:4;stroke-dasharray:none;stroke-dashoffset:0;stroke-opacity:1;color-rendering:auto;image-rendering:auto;shape-rendering:auto;text-rendering:auto;enable-background:accumulate" d="M 15.953385,6.0011273 A 1.0001,1.0001454 0 0 0 15.086198,6.5929511 L 7.086197,24.593769 a 1.0001,1.0001454 0 0 0 1.6210937,1.113332 c 2.1141193,-2.118585 4.9717743,-3.618837 7.3242193,-3.705247 2.828331,-0.04913 5.748517,1.682965 7.166016,3.593914 a 1.0001,1.0001454 0 0 0 1.716796,-1.001999 l -8,-18.0008179 A 1.0001,1.0001454 0 0 0 15.953385,6.0011273 Z"/>
 <path id="path823" style="opacity:1;fill:#cfd0c2;fill-opacity:1;stroke:none;stroke-width:1.6985532;stroke-linecap:round;stroke-linejoin:round;stroke-miterlimit:4;stroke-dasharray:none;stroke-opacity:1" d="M 16,7 8,25 c 2.259118,-2.263787 5.273641,-3.901642 8,-4 3.230398,-0.0618 6.375081,1.809525 8,4 z"/>
</svg>
