<svg xmlns="http://www.w3.org/2000/svg" id="svg5327" width="32" height="32" version="1.1">
 <defs id="defs5329">
  <filter id="filter898" style="color-interpolation-filters:sRGB" width="1.148" height="1.101" x="-.07" y="-.05">
   <feGaussianBlur id="feGaussianBlur900" stdDeviation=".463"/>
  </filter>
  <filter id="filter822" style="color-interpolation-filters:sRGB" width="1.178" height="1.121" x="-.09" y="-.06">
   <feGaussianBlur id="feGaussianBlur824" stdDeviation=".555"/>
  </filter>
 </defs>
 <path id="path880" style="color:#000000;font-style:normal;font-variant:normal;font-weight:normal;font-stretch:normal;font-size:medium;line-height:normal;font-family:sans-serif;font-variant-ligatures:normal;font-variant-position:normal;font-variant-caps:normal;font-variant-numeric:normal;font-variant-alternates:normal;font-feature-settings:normal;text-indent:0;text-align:start;text-decoration:none;text-decoration-line:none;text-decoration-style:solid;text-decoration-color:#000000;letter-spacing:normal;word-spacing:normal;text-transform:none;writing-mode:lr-tb;direction:ltr;text-orientation:mixed;dominant-baseline:auto;baseline-shift:baseline;text-anchor:start;white-space:normal;shape-padding:0;clip-rule:nonzero;display:inline;overflow:visible;visibility:visible;opacity:0.2;isolation:auto;mix-blend-mode:normal;color-interpolation:sRGB;color-interpolation-filters:linearRGB;solid-color:#000000;solid-opacity:1;vector-effect:none;fill:#000000;fill-opacity:1;fill-rule:nonzero;stroke:none;stroke-width:1.99994516;stroke-linecap:round;stroke-linejoin:round;stroke-miterlimit:4;stroke-dasharray:none;stroke-dashoffset:0;stroke-opacity:1;paint-order:normal;color-rendering:auto;image-rendering:auto;shape-rendering:auto;text-rendering:auto;enable-background:accumulate;filter:url(#filter822)" d="M 8.5008231,11.544922 A 1.0000451,1.0001 0 0 1 10.030036,10.65625 l 7.999561,4.996094 a 1.0000451,1.0001 0 0 1 0.002,1.695312 l -7.999608,5.003906 A 1.0000451,1.0001 0 0 1 8.5008231,21.533203 1.0000451,1.0001 0 0 1 8.7644811,20.826172 C 9.6166581,19.90021 10.499614,18.178831 10.500713,16.5 10.501813,14.824731 9.6138691,13.109377 8.7625281,12.179688 A 1.0000451,1.0001 0 0 1 8.5008231,11.544922 Z M 20.500165,6.5 a 1.0000451,1.0001 0 0 1 0.999945,-1 h 0.999945 A 1.0000451,1.0001 0 0 1 23.5,6.5 v 20 a 1.0000451,1.0001 0 0 1 -0.999945,1 H 21.50011 a 1.0000451,1.0001 0 0 1 -0.999945,-1 z"/>
 <path id="path832" style="color:#000000;font-style:normal;font-variant:normal;font-weight:normal;font-stretch:normal;font-size:medium;line-height:normal;font-family:sans-serif;font-variant-ligatures:normal;font-variant-position:normal;font-variant-caps:normal;font-variant-numeric:normal;font-variant-alternates:normal;font-feature-settings:normal;text-indent:0;text-align:start;text-decoration:none;text-decoration-line:none;text-decoration-style:solid;text-decoration-color:#000000;letter-spacing:normal;word-spacing:normal;text-transform:none;writing-mode:lr-tb;direction:ltr;text-orientation:mixed;dominant-baseline:auto;baseline-shift:baseline;text-anchor:start;white-space:normal;shape-padding:0;clip-rule:nonzero;display:inline;overflow:visible;visibility:visible;opacity:1;isolation:auto;mix-blend-mode:normal;color-interpolation:sRGB;color-interpolation-filters:linearRGB;solid-color:#000000;solid-opacity:1;vector-effect:none;fill:#272822;fill-opacity:1;fill-rule:nonzero;stroke:none;stroke-width:1.99994516;stroke-linecap:round;stroke-linejoin:round;stroke-miterlimit:4;stroke-dasharray:none;stroke-dashoffset:0;stroke-opacity:1;paint-order:normal;color-rendering:auto;image-rendering:auto;shape-rendering:auto;text-rendering:auto;enable-background:accumulate" d="M 8.000823,11.044922 A 1.0000451,1.0001 0 0 1 9.530036,10.15625 l 7.999561,4.996094 a 1.0000451,1.0001 0 0 1 0.002,1.695312 L 9.531989,21.851562 A 1.0000451,1.0001 0 0 1 8.000823,21.033203 1.0000451,1.0001 0 0 1 8.264481,20.326172 C 9.116658,19.40021 9.999614,17.678831 10.000713,16 10.001813,14.324731 9.113869,12.609377 8.262528,11.679688 A 1.0000451,1.0001 0 0 1 8.000823,11.044922 Z M 20.000165,6 A 1.0000451,1.0001 0 0 1 21.00011,5 h 0.999945 A 1.0000451,1.0001 0 0 1 23,6 v 20 a 1.0000451,1.0001 0 0 1 -0.999945,1 H 21.00011 a 1.0000451,1.0001 0 0 1 -0.999945,-1 z"/>
 <path id="path830-3" style="opacity:1;fill:#cfd0c2;fill-opacity:1;stroke:none;stroke-width:0;stroke-linecap:round;stroke-linejoin:round;stroke-miterlimit:4;stroke-dasharray:none;stroke-dashoffset:0;stroke-opacity:1;paint-order:normal" d="M 9,11.003906 17,16 9,21.003906 c 1.02032,-1.108602 1.998688,-3 2,-5.003906 0.0013,-2.003906 -0.985314,-3.888088 -2,-4.996094 z M 21,6 h 1 v 20 h -1 z"/>
</svg>
