<svg xmlns="http://www.w3.org/2000/svg" id="svg5327" width="32" height="32" version="1.1">
 <defs id="defs5329">
  <filter id="filter1051" style="color-interpolation-filters:sRGB" width="1.099" height="1.152" x="-.05" y="-.08">
   <feGaussianBlur id="feGaussianBlur1053" stdDeviation=".413"/>
  </filter>
  <filter id="filter822" style="color-interpolation-filters:sRGB" width="1.119" height="1.183" x="-.06" y="-.09">
   <feGaussianBlur id="feGaussianBlur824" stdDeviation=".495"/>
  </filter>
 </defs>
 <path id="path976" style="color:#000000;font-style:normal;font-variant:normal;font-weight:normal;font-stretch:normal;font-size:medium;line-height:normal;font-family:sans-serif;font-variant-ligatures:normal;font-variant-position:normal;font-variant-caps:normal;font-variant-numeric:normal;font-variant-alternates:normal;font-feature-settings:normal;text-indent:0;text-align:start;text-decoration:none;text-decoration-line:none;text-decoration-style:solid;text-decoration-color:#000000;letter-spacing:normal;word-spacing:normal;text-transform:none;writing-mode:lr-tb;direction:ltr;text-orientation:mixed;dominant-baseline:auto;baseline-shift:baseline;text-anchor:start;white-space:normal;shape-padding:0;clip-rule:nonzero;display:inline;overflow:visible;visibility:visible;opacity:0.2;isolation:auto;mix-blend-mode:normal;color-interpolation:sRGB;color-interpolation-filters:linearRGB;solid-color:#000000;solid-opacity:1;vector-effect:none;fill:#000000;fill-opacity:1;fill-rule:nonzero;stroke:none;stroke-width:1.99984396;stroke-linecap:round;stroke-linejoin:round;stroke-miterlimit:4;stroke-dasharray:none;stroke-dashoffset:0;stroke-opacity:1;paint-order:normal;color-rendering:auto;image-rendering:auto;shape-rendering:auto;text-rendering:auto;enable-background:accumulate;filter:url(#filter822)" d="m 6.5,16.499841 a 1.0001,0.9999439 0 0 0 1,0.999844 h 9.720703 c -0.280702,1.348345 -0.775564,2.594653 -1.451172,3.315888 a 1.0001,0.9999439 0 0 0 1.251953,1.536869 l 9,-5.495235 a 1.0001,0.9999439 0 0 0 0,-1.706765 l -9,-5.5030478 a 1.0001,0.9999439 0 0 0 -1.25,1.5388228 c 0.675931,0.717982 1.166676,1.964821 1.447266,3.313936 H 7.5 a 1.0001,0.9999439 0 0 0 -1,0.999844 z"/>
 <path id="path841" style="color:#000000;font-style:normal;font-variant:normal;font-weight:normal;font-stretch:normal;font-size:medium;line-height:normal;font-family:sans-serif;font-variant-ligatures:normal;font-variant-position:normal;font-variant-caps:normal;font-variant-numeric:normal;font-variant-alternates:normal;font-feature-settings:normal;text-indent:0;text-align:start;text-decoration:none;text-decoration-line:none;text-decoration-style:solid;text-decoration-color:#000000;letter-spacing:normal;word-spacing:normal;text-transform:none;writing-mode:lr-tb;direction:ltr;text-orientation:mixed;dominant-baseline:auto;baseline-shift:baseline;text-anchor:start;white-space:normal;shape-padding:0;clip-rule:nonzero;display:inline;overflow:visible;visibility:visible;opacity:1;isolation:auto;mix-blend-mode:normal;color-interpolation:sRGB;color-interpolation-filters:linearRGB;solid-color:#000000;solid-opacity:1;vector-effect:none;fill:#272822;fill-opacity:1;fill-rule:nonzero;stroke:none;stroke-width:1.99984396;stroke-linecap:round;stroke-linejoin:round;stroke-miterlimit:4;stroke-dasharray:none;stroke-dashoffset:0;stroke-opacity:1;paint-order:normal;color-rendering:auto;image-rendering:auto;shape-rendering:auto;text-rendering:auto;enable-background:accumulate" d="m 6,15.99984 a 1.0001,0.9999439 0 0 0 1,0.999844 h 9.720703 c -0.280702,1.348345 -0.775564,2.594653 -1.451172,3.315888 a 1.0001,0.9999439 0 0 0 1.251953,1.536869 l 9,-5.495235 a 1.0001,0.9999439 0 0 0 0,-1.706765 l -9,-5.503048 a 1.0001,0.9999439 0 0 0 -1.25,1.538823 c 0.675931,0.717982 1.166676,1.964821 1.447266,3.313936 H 7 a 1.0001,0.9999439 0 0 0 -1,0.999844 z"/>
 <path id="path819" style="opacity:1;fill:#cfd0c2;fill-opacity:1;stroke:none;stroke-width:0;stroke-linecap:round;stroke-linejoin:round;stroke-miterlimit:4;stroke-dasharray:none;stroke-dashoffset:0;stroke-opacity:1;paint-order:normal" d="M 7,16 H 17 V 15 H 7 Z m 9,5 9,-5.496094 L 16,10 c 1.14786,1.219462 1.998524,3.299609 2,5.503906 C 18.0014,17.708202 17.141522,19.781193 16,21 Z"/>
</svg>
