<svg xmlns="http://www.w3.org/2000/svg" id="svg5327" width="32" height="32" version="1.1">
 <defs id="defs5329">
  <filter id="filter862" style="color-interpolation-filters:sRGB" width="1.152" height="1.099" x="-.08" y="-.05">
   <feGaussianBlur id="feGaussianBlur864" stdDeviation=".413"/>
  </filter>
  <filter id="filter822" style="color-interpolation-filters:sRGB" width="1.183" height="1.119" x="-.09" y="-.06">
   <feGaussianBlur id="feGaussianBlur824" stdDeviation=".495"/>
  </filter>
 </defs>
 <path id="path844" style="color:#000000;font-style:normal;font-variant:normal;font-weight:normal;font-stretch:normal;font-size:medium;line-height:normal;font-family:sans-serif;font-variant-ligatures:normal;font-variant-position:normal;font-variant-caps:normal;font-variant-numeric:normal;font-variant-alternates:normal;font-feature-settings:normal;text-indent:0;text-align:start;text-decoration:none;text-decoration-line:none;text-decoration-style:solid;text-decoration-color:#000000;letter-spacing:normal;word-spacing:normal;text-transform:none;writing-mode:lr-tb;direction:ltr;text-orientation:mixed;dominant-baseline:auto;baseline-shift:baseline;text-anchor:start;white-space:normal;shape-padding:0;clip-rule:nonzero;display:inline;overflow:visible;visibility:visible;opacity:0.2;isolation:auto;mix-blend-mode:normal;color-interpolation:sRGB;color-interpolation-filters:linearRGB;solid-color:#000000;solid-opacity:1;vector-effect:none;fill:#000000;fill-opacity:1;fill-rule:nonzero;stroke:none;stroke-width:1.99984396;stroke-linecap:round;stroke-linejoin:round;stroke-miterlimit:4;stroke-dasharray:none;stroke-dashoffset:0;stroke-opacity:1;paint-order:normal;color-rendering:auto;image-rendering:auto;shape-rendering:auto;text-rendering:auto;enable-background:accumulate;filter:url(#filter822)" d="m 15.500159,6.499675 a 0.9999439,1.0001 0 0 0 -0.999844,1 v 9.720703 C 13.15197,16.939676 11.905662,16.444814 11.184427,15.769206 a 0.9999439,1.0001 0 0 0 -1.5368688,1.251953 l 5.4952348,9 a 0.9999439,1.0001 0 0 0 1.706765,0 l 5.503048,-9 a 0.9999439,1.0001 0 0 0 -1.538823,-1.25 c -0.717982,0.675931 -1.964821,1.166676 -3.313936,1.447266 v -9.71875 a 0.9999439,1.0001 0 0 0 -0.999844,-1 z"/>
 <path id="path841" style="color:#000000;font-style:normal;font-variant:normal;font-weight:normal;font-stretch:normal;font-size:medium;line-height:normal;font-family:sans-serif;font-variant-ligatures:normal;font-variant-position:normal;font-variant-caps:normal;font-variant-numeric:normal;font-variant-alternates:normal;font-feature-settings:normal;text-indent:0;text-align:start;text-decoration:none;text-decoration-line:none;text-decoration-style:solid;text-decoration-color:#000000;letter-spacing:normal;word-spacing:normal;text-transform:none;writing-mode:lr-tb;direction:ltr;text-orientation:mixed;dominant-baseline:auto;baseline-shift:baseline;text-anchor:start;white-space:normal;shape-padding:0;clip-rule:nonzero;display:inline;overflow:visible;visibility:visible;opacity:1;isolation:auto;mix-blend-mode:normal;color-interpolation:sRGB;color-interpolation-filters:linearRGB;solid-color:#000000;solid-opacity:1;vector-effect:none;fill:#cfd0c2;fill-opacity:1;fill-rule:nonzero;stroke:none;stroke-width:1.99984396;stroke-linecap:round;stroke-linejoin:round;stroke-miterlimit:4;stroke-dasharray:none;stroke-dashoffset:0;stroke-opacity:1;paint-order:normal;color-rendering:auto;image-rendering:auto;shape-rendering:auto;text-rendering:auto;enable-background:accumulate" d="m 15.00016,6 a 0.9999439,1.0001 0 0 0 -0.999844,1 v 9.720703 c -1.348345,-0.280702 -2.594653,-0.775564 -3.315888,-1.451172 a 0.9999439,1.0001 0 0 0 -1.5368694,1.251953 l 5.4952354,9 a 0.9999439,1.0001 0 0 0 1.706765,0 l 5.503048,-9 a 0.9999439,1.0001 0 0 0 -1.538823,-1.25 c -0.717982,0.675931 -1.964821,1.166676 -3.313936,1.447266 V 7 A 0.9999439,1.0001 0 0 0 16.000004,6 Z"/>
 <path id="path819" style="opacity:1;fill:#272822;fill-opacity:1;stroke:none;stroke-width:0;stroke-linecap:round;stroke-linejoin:round;stroke-miterlimit:4;stroke-dasharray:none;stroke-dashoffset:0;stroke-opacity:1;paint-order:normal" d="m 15,7 v 10 h 1 V 7 Z m -5,9 5.496094,9 L 21,16 c -1.219462,1.14786 -3.299609,1.998524 -5.503906,2 C 13.291798,18.0014 11.218807,17.141522 10,16 Z"/>
</svg>
